RASPBERRY PI 1----------------------------
wlan1: 192.168.0.200 (static IP)
eth1: 169.254.42.78

global ip pi: 202.186.76.6

RASPBERRY PI 2----------------------------
wlan2: 192.168.0.210 (static IP)
eth2: 169.254.115.48

RASPBERRY PI 3----------------------------
wlan: 192.168.0.220 (static IP)
eth0: 

RASPBERRY PI 4----------------------------
wlan: 192.168.0.230 (static IP)
eth0: 






to configure ssh-keygen: https://www.thegeekstuff.com/2008/11/3-steps-to-perform-ssh-login-without-password-using-ssh-keygen-ssh-copy-id

opencv pi installation : https://www.youtube.com/watch?v=Ha2CcszCNGk

to stream from webcam______________________________________________

	install xming and xming fonts
	enable x11 port forwarding @ pi through : sudo nano /etc/ssh/sshd_config
	look for xforwarding yes
	open putty, load configuration, enable x11 port forwarding


